{
  "Comment": "automatic update via aws-dns",
  "Changes": [
    {
      "Action": "UPSERT",
      "ResourceRecordSet": {
        "Name": "cutr.yt",
        "Type": "A",
        "TTL": 60,
        "ResourceRecords": [
          {
            "Value": "$IP$"
          }
        ]
      }
    }
  ]
}